dump.vcd
$date
	Mon May 13 21:19:19 2024
$end

$version
	Synopsys VCS version R-2020.12
$end

$timescale
	1ns
$end

$comment Csum: 1 e457e166533624a0 $end


$scope module $unit $end
$upscope $end


$scope module ofdm_pkg $end
$upscope $end


$scope module top $end
$var reg 1 ! clk $end

$scope begin unnamed$$_vcs_2 $end
$upscope $end


$scope begin unnamed$$_vcs_0 $end
$upscope $end


$scope begin unnamed$$_vcs_1 $end
$upscope $end


$scope module intf $end
$var wire 1 " clk $end
$var reg 1 # reset $end
$var reg 1 $ pushin $end
$var reg 1 % firstdata $end
$var reg 17 & dinr [16:0] $end
$var reg 17 ' dini [16:0] $end
$var reg 1 ( pushout $end
$var reg 48 ) dataout [47:0] $end
$upscope $end


$scope module a1 $end
$upscope $end

$upscope $end


$scope module uvm_pkg $end
$var reg 32 * UVM_UNBOUNDED_CONNECTIONS [31:0] $end
$var reg 1 + uvm_start_uvm_declarations $end
$var reg 32 , uvm_global_random_seed [31:0] $end
$upscope $end

$enddefinitions $end

#0
$dumpvars
1+
b11111111111111111111111111111111 *
b01000010000001111100110001000111 ,
0!
b000000000000000000000000000000000000000000000000 )
bxxxxxxxxxxxxxxxxx '
bxxxxxxxxxxxxxxxxx &
x%
x$
0(
1#
0"
$end
#1
0#
#6
1!
1"
1$
1%
b00001101010101000 &
b00000000000000000 '
#11
0!
0"
#16
1!
1"
0%
b00000000010011111 &
b11111111111110001 '
#21
0!
0"
#26
1!
1"
b11111101000011111 &
b00000000001011010 '
#31
0!
0"
#36
1!
1"
b11111111000010011 &
b00000000000011011 '
#41
0!
0"
#46
1!
1"
b11111100100111100 &
b00000000010100001 '
#51
0!
0"
#56
1!
1"
b00000001110101110 &
b11111111110110001 '
#61
0!
0"
#66
1!
1"
b11111101100010100 &
b00000000001111000 '
#71
0!
0"
#76
1!
1"
b11111111011110000 &
b00000000010001000 '
#81
0!
0"
#86
1!
1"
b00000010101010001 &
b11111111010010011 '
#91
0!
0"
#96
1!
1"
b11111111011111001 &
b00000000010001000 '
#101
0!
0"
#106
1!
1"
b11111111010001111 &
b00000000000110111 '
#111
0!
0"
#116
1!
1"
b00000000100000010 &
b11111111110100100 '
#121
0!
0"
#126
1!
1"
b00000000100011110 &
b11111111111111111 '
#131
0!
0"
#136
1!
1"
b00000010001100111 &
b11111110111111011 '
#141
0!
0"
#146
1!
1"
b00000000000100100 &
b00000000010101001 '
#151
0!
0"
#156
1!
1"
b11111100000011010 &
b00000001001010010 '
#161
0!
0"
#166
1!
1"
b00000000000101110 &
b00000000010000011 '
#171
0!
0"
#176
1!
1"
b11111111000010000 &
b00000000010010000 '
#181
0!
0"
#186
1!
1"
b11111111000101001 &
b00000000011000111 '
#191
0!
0"
#196
1!
1"
b11111111110000010 &
b00000000011000100 '
#201
0!
0"
#206
1!
1"
b11111111111000111 &
b11111111100111011 '
#211
0!
0"
#216
1!
1"
b00000001101101111 &
b11111111100101101 '
#221
0!
0"
#226
1!
1"
b11111111110111000 &
b11111111100000101 '
#231
0!
0"
#236
1!
1"
b00000010000001111 &
b11111111001011110 '
#241
0!
0"
#246
1!
1"
b11111110101000011 &
b00000000101010001 '
#251
0!
0"
#256
1!
1"
b11111111001001011 &
b00000000100100010 '
#261
0!
0"
#266
1!
1"
b00000000111100011 &
b11111111101001101 '
#271
0!
0"
#276
1!
1"
b00000000000000100 &
b11111111010111100 '
#281
0!
0"
#286
1!
1"
b00000001010101111 &
b11111111101101000 '
#291
0!
0"
#296
1!
1"
b11111110011110011 &
b00000000011110101 '
#301
0!
0"
#306
1!
1"
b00000001100101000 &
b11111111010001010 '
#311
0!
0"
#316
1!
1"
b11111111100111000 &
b11111111111101110 '
#321
0!
0"
#326
1!
1"
b11111111100000000 &
b00000000100000000 '
#331
0!
0"
#336
1!
1"
b00000001010100111 &
b11111111000011101 '
#341
0!
0"
#346
1!
1"
b11111110111001010 &
b00000000010111100 '
#351
0!
0"
#356
1!
1"
b00000000110110011 &
b00000000001000111 '
#361
0!
0"
#366
1!
1"
b11111111100111111 &
b11111111010001000 '
#371
0!
0"
#376
1!
1"
b00000000101011010 &
b00000000001010100 '
#381
0!
0"
#386
1!
1"
b11111110111110101 &
b00000000101111100 '
#391
0!
0"
#396
1!
1"
b11111111011001111 &
b00000000111010101 '
#401
0!
0"
#406
1!
1"
b00000001001001100 &
b11111110110110101 '
#411
0!
0"
#416
1!
1"
b11111111110111000 &
b11111111000011011 '
#421
0!
0"
#426
1!
1"
b00000000100110111 &
b00000000100101010 '
#431
0!
0"
#436
1!
1"
b11111110110111110 &
b00000000001111110 '
#441
0!
0"
#446
1!
1"
b00000000000100001 &
b00000001011011111 '
#451
0!
0"
#456
1!
1"
b11111110110101010 &
b00000001010011000 '
#461
0!
0"
#466
1!
1"
b11111111110111101 &
b00000000011111000 '
#471
0!
0"
#476
1!
1"
b00000000001111010 &
b00000000001110010 '
#481
0!
0"
#486
1!
1"
b11111110111010010 &
b00000000111011000 '
#491
0!
0"
#496
1!
1"
b00000000111010100 &
b00000000000100100 '
#501
0!
0"
#506
1!
1"
b00000000011010001 &
b11111100000101001 '
#511
0!
0"
#516
1!
1"
b00000001001001000 &
b11111111001001010 '
#521
0!
0"
#526
1!
1"
b11111111000110000 &
b00000001001001110 '
#531
0!
0"
#536
1!
1"
b00000000010000111 &
b11111111100100111 '
#541
0!
0"
#546
1!
1"
b11111111111001111 &
b00000001100010101 '
#551
0!
0"
#556
1!
1"
b11111111110100010 &
b11111101110100101 '
#561
0!
0"
#566
1!
1"
b00000000111001010 &
b00000000001001101 '
#571
0!
0"
#576
1!
1"
b11111110011001001 &
b00000011100000011 '
#581
0!
0"
#586
1!
1"
b00000001001010101 &
b11111110000101000 '
#591
0!
0"
#596
1!
1"
b11111111001111001 &
b00000001010110110 '
#601
0!
0"
#606
1!
1"
b00000000001001001 &
b00000000100010110 '
#611
0!
0"
#616
1!
1"
b00000000010111010 &
b11111110010110111 '
#621
0!
0"
#626
1!
1"
b11111111011011101 &
b11111110101001110 '
#631
0!
0"
#636
1!
1"
b00000001001001000 &
b11110110010111011 '
#641
0!
0"
#646
1!
1"
b11111111000000000 &
b00000000000000000 '
#651
0!
0"
#656
1!
1"
b00000001001001000 &
b00001001101000101 '
#661
0!
0"
#666
1!
1"
b11111111011011101 &
b00000001010110010 '
#671
0!
0"
#676
1!
1"
b00000000010111010 &
b00000001101001001 '
#681
0!
0"
#686
1!
1"
b00000000001001001 &
b11111111011101010 '
#691
0!
0"
#696
1!
1"
b11111111001111001 &
b11111110101001010 '
#701
0!
0"
#706
1!
1"
b00000001001010101 &
b00000001111011000 '
#711
0!
0"
#716
1!
1"
b11111110011001001 &
b11111100011111101 '
#721
0!
0"
#726
1!
1"
b00000000111001010 &
b11111111110110011 '
#731
0!
0"
#736
1!
1"
b11111111110100010 &
b00000010001011011 '
#741
0!
0"
#746
1!
1"
b11111111111001111 &
b11111110011101011 '
#751
0!
0"
#756
1!
1"
b00000000010000111 &
b00000000011011001 '
#761
0!
0"
#766
1!
1"
b11111111000110000 &
b11111110110110010 '
#771
0!
0"
#776
1!
1"
b00000001001001000 &
b00000000110110110 '
#781
0!
0"
#786
1!
1"
b00000000011010001 &
b00000011111010111 '
#791
0!
0"
#796
1!
1"
b00000000111010100 &
b11111111111011100 '
#801
0!
0"
#806
1!
1"
b11111110111010010 &
b11111111000101000 '
#811
0!
0"
#816
1!
1"
b00000000001111010 &
b11111111110001110 '
#821
0!
0"
#826
1!
1"
b11111111110111101 &
b11111111100001000 '
#831
0!
0"
#836
1!
1"
b11111110110101010 &
b11111110101101000 '
#841
0!
0"
#846
1!
1"
b00000000000100001 &
b11111110100100001 '
#851
0!
0"
#856
1!
1"
b11111110110111110 &
b11111111110000010 '
#861
0!
0"
#866
1!
1"
b00000000100110111 &
b11111111011010110 '
#871
0!
0"
#876
1!
1"
b11111111110111000 &
b00000000111100101 '
#881
0!
0"
#886
1!
1"
b00000001001001100 &
b00000001001001011 '
#891
0!
0"
#896
1!
1"
b11111111011001111 &
b11111111000101011 '
#901
0!
0"
#906
1!
1"
b11111110111110101 &
b11111111010000100 '
#911
0!
0"
#916
1!
1"
b00000000101011010 &
b11111111110101100 '
#921
0!
0"
#926
1!
1"
b11111111100111111 &
b00000000101111000 '
#931
0!
0"
#936
1!
1"
b00000000110110011 &
b11111111110111001 '
#941
0!
0"
#946
1!
1"
b11111110111001010 &
b11111111101000100 '
#951
0!
0"
#956
1!
1"
b00000001010100111 &
b00000000111100011 '
#961
0!
0"
#966
1!
1"
b11111111100000000 &
b11111111100000000 '
#971
0!
0"
#976
1!
1"
b11111111100111000 &
b00000000000010010 '
#981
0!
0"
#986
1!
1"
b00000001100101000 &
b00000000101110110 '
#991
0!
0"
#996
1!
1"
b11111110011110011 &
b11111111100001011 '
#1001
0!
0"
#1006
1!
1"
b00000001010101111 &
b00000000010011000 '
#1011
0!
0"
#1016
1!
1"
b00000000000000100 &
b00000000101000100 '
#1021
0!
0"
#1026
1!
1"
b00000000111100011 &
b00000000010110011 '
#1031
0!
0"
#1036
1!
1"
b11111111001001011 &
b11111111011011110 '
#1041
0!
0"
#1046
1!
1"
b11111110101000011 &
b11111111010101111 '
#1051
0!
0"
#1056
1!
1"
b00000010000001111 &
b00000000110100010 '
#1061
0!
0"
#1066
1!
1"
b11111111110111000 &
b00000000011111011 '
#1071
0!
0"
#1076
1!
1"
b00000001101101111 &
b00000000011010011 '
#1081
0!
0"
#1086
1!
1"
b11111111111000111 &
b00000000011000101 '
#1091
0!
0"
#1096
1!
1"
b11111111110000010 &
b11111111100111100 '
#1101
0!
0"
#1106
1!
1"
b11111111000101001 &
b11111111100111001 '
#1111
0!
0"
#1116
1!
1"
b11111111000010000 &
b11111111101110000 '
#1121
0!
0"
#1126
1!
1"
b00000000000101110 &
b11111111101111101 '
#1131
0!
0"
#1136
1!
1"
b11111100000011010 &
b11111110110101110 '
#1141
0!
0"
#1146
1!
1"
b00000000000100100 &
b11111111101010111 '
#1151
0!
0"
#1156
1!
1"
b00000010001100111 &
b00000001000000101 '
#1161
0!
0"
#1166
1!
1"
b00000000100011110 &
b00000000000000001 '
#1171
0!
0"
#1176
1!
1"
b00000000100000010 &
b00000000001011100 '
#1181
0!
0"
#1186
1!
1"
b11111111010001111 &
b11111111111001001 '
#1191
0!
0"
#1196
1!
1"
b11111111011111001 &
b11111111101111000 '
#1201
0!
0"
#1206
1!
1"
b00000010101010001 &
b00000000101101101 '
#1211
0!
0"
#1216
1!
1"
b11111111011110000 &
b11111111101111000 '
#1221
0!
0"
#1226
1!
1"
b11111101100010100 &
b11111111110001000 '
#1231
0!
0"
#1236
1!
1"
b00000001110101110 &
b00000000001001111 '
#1241
0!
0"
#1246
1!
1"
b11111100100111100 &
b11111111101011111 '
#1251
0!
0"
#1256
1!
1"
b11111111000010011 &
b11111111111100101 '
#1261
0!
0"
#1266
1!
1"
b11111101000011111 &
b11111111110100110 '
#1271
0!
0"
#1276
1!
1"
b00000000010011111 &
b00000000000001111 '
0$
